<?xml version="1.0" encoding="utf-8"?>
<!-- Generator: Adobe Illustrator 22.0.0, SVG Export Plug-In . SVG Version: 6.00 Build 0)  -->
<svg version="1.1" id="Layer_1" xmlns="http://www.w3.org/2000/svg" xmlns:xlink="http://www.w3.org/1999/xlink" x="0px" y="0px"
	 viewBox="0 0 1441.7 717.1" style="enable-background:new 0 0 1441.7 717.1;" xml:space="preserve">
<style type="text/css">
	.st0{stroke:#000000;stroke-miterlimit:10;}
	.st1{fill:none;stroke:#FFFFFF;stroke-width:2;stroke-miterlimit:10;}
	.st2{fill:none;stroke:#FFFFFF;stroke-width:4;stroke-linecap:round;stroke-linejoin:round;}
	.st3{fill:#FFFFFF;}
	.st4{font-family:'SFProDisplay-Medium';}
	.st5{font-size:14px;}
	.st6{fill:none;stroke:#FFFFFF;stroke-width:4;stroke-miterlimit:10;}
	.st7{fill:none;stroke:#FFFFFF;stroke-width:2;stroke-linecap:round;stroke-linejoin:round;stroke-miterlimit:10;}
	.st8{fill:none;stroke:#FFFFFF;stroke-width:4;stroke-linecap:round;stroke-linejoin:round;stroke-miterlimit:10;}
	.st9{enable-background:new    ;}
	.st10{fill:none;stroke:#FFFFFF;stroke-width:3;stroke-miterlimit:10;}
	.st11{fill:none;stroke:#FFFFFF;stroke-width:3;stroke-linecap:round;stroke-linejoin:round;stroke-miterlimit:10;}
	.st12{font-family:'SFProDisplay-Regular';}
	.st13{fill:none;stroke:#FFFFFF;stroke-width:4;stroke-linecap:round;stroke-linejoin:round;stroke-dasharray:12,12;}
</style>
<rect class="st0" width="1441.7" height="717.1"/>
<g transform="translate(0.5,0.5)">
	<path pointer-events="none" class="st1" d="M640.9,211h75"/>
	<rect x="530.9" y="186" pointer-events="none" class="st2" width="110" height="50"/>
	<g transform="translate(398.5,128.5)">
		<text transform="matrix(1 0 0 1 149.1255 89.0464)" class="st3 st4 st5">NodeJS API</text>
	</g>
	<path pointer-events="none" class="st6" d="M715.9,180c0-18.7,90-18.7,90,0v62c0,18.7-90,18.7-90,0V180z"/>
	<path pointer-events="none" class="st6" d="M715.9,180c0,14,90,14,90,0 M715.9,187c0,14,90,14,90,0 M715.9,194c0,14,90,14,90,0"/>
	<g transform="translate(592.5,146.5)">
		<text transform="matrix(1 0 0 1 151.9983 87.5464)" class="st3 st4 st5">PSQL</text>
	</g>
	<path pointer-events="none" class="st7" d="M340.9,526h218V236"/>
	<g transform="translate(235.5,429.5)">
		<text transform="matrix(1 0 0 1 174.6903 89.0464)" class="st3 st4 st5">HTTP GET</text>
	</g>
	<path pointer-events="none" class="st6" d="M340.9,411v220l-10,10h-180V421l10-10H340.9z"/>
	<path pointer-events="none" class="st8" d="M150.9,421h180l10-10 M330.9,421v220"/>
	<g transform="translate(7.5,353.5)">
		<text transform="matrix(1 0 0 1 149.5601 89.0464)" class="st3 st4 st5" style="text-decoration: underline;">Android Phone</text>
	</g>
	<path pointer-events="none" class="st1" d="M240.9,521v30"/>
	<rect x="180.9" y="461" pointer-events="none" class="st2" width="120" height="60"/>
	<g transform="translate(43.5,408.5)">
		<text transform="matrix(1 0 0 1 166.3213 80.0464)" class="st9"><tspan x="0" y="0" class="st3 st4 st5">Drive Safe</tspan><tspan x="18.6" y="16.8" class="st3 st4 st5">App</tspan></text>
	</g>
	<rect x="180.9" y="551" pointer-events="none" class="st2" width="120" height="60"/>
	<g transform="translate(52.5,498.5)">
		<text transform="matrix(1 0 0 1 149.3633 89.0464)" class="st3 st4 st5">NFC Sensor</text>
	</g>
	<path pointer-events="none" class="st10" d="M1290.9,411v220l-10,10h-180V421l10-10H1290.9z"/>
	<path pointer-events="none" class="st8" d="M1100.9,421h180l10-10 M1280.9,421v220"/>
	<g transform="translate(957.5,353.5)">
		<text transform="matrix(1 0 0 1 149.5601 89.0464)" class="st3 st4 st5" style="text-decoration: underline;">Android Phone</text>
	</g>
	<path pointer-events="none" class="st10" d="M1190.9,521v30"/>
	<rect x="1130.9" y="461" pointer-events="none" class="st2" width="120" height="60"/>
	<g transform="translate(984.5,400.5)">
		<text transform="matrix(1 0 0 1 175.3208 88.0464)" class="st9"><tspan x="0" y="0" class="st3 st4 st5">Drive Safe</tspan><tspan x="9.5" y="16.8" class="st3 st4 st5">Reader</tspan></text>
	</g>
	<rect x="1130.9" y="551" pointer-events="none" class="st11" width="120" height="60"/>
	<g transform="translate(1002.5,498.5)">
		<text transform="matrix(1 0 0 1 149.3633 89.0464)" class="st3 st4 st5">NFC Sensor</text>
	</g>
	<path pointer-events="none" class="st1" d="M970.9,526h130"/>
	<g transform="translate(862.5,424.5)">
		<text transform="matrix(1 0 0 1 149.0381 89.0464)" class="st3 st4 st5">IP Socket</text>
	</g>
	<path pointer-events="none" class="st7" d="M780.9,526h-167V236"/>
	<g transform="translate(515.5,429.5)">
		<text transform="matrix(1 0 0 1 149.7173 89.0464)" class="st3 st4 st5">HTTP POST</text>
	</g>
	<path pointer-events="none" class="st8" d="M970.9,451v140l-10,10h-180V461l10-10H970.9z"/>
	<path pointer-events="none" class="st11" d="M780.9,461h180l10-10 M960.9,461v140"/>
	<g transform="translate(637.5,393.5)">
		<text transform="matrix(1 0 0 1 149.1494 89.0464)" class="st3 st4 st5" style="text-decoration: underline;">PC</text>
	</g>
	<rect x="815.9" y="506" pointer-events="none" class="st2" width="120" height="60"/>
	<g transform="translate(669.5,445.5)">
		<text transform="matrix(1 0 0 1 175.2573 87.5464)" class="st9"><tspan x="0" y="0" class="st3 st12 st5">Drive Safe</tspan><tspan x="5.5" y="16.8" class="st3 st12 st5">Desktop</tspan></text>
	</g>
	<rect x="400.9" y="76" pointer-events="none" class="st13" width="505" height="300"/>
	<g transform="translate(268.5,14.5)">
		<text transform="matrix(1 0 0 1 150.022 89.0464)" class="st3 st4 st5">Cloud Server</text>
	</g>
</g>
</svg>
